<?xml version="1.0" encoding="UTF-8"?>
<svg width="91px" height="92px" viewBox="0 0 91 92" version="1.1" xmlns="http://www.w3.org/2000/svg" xmlns:xlink="http://www.w3.org/1999/xlink">
    <!-- Generator: Sketch 43.2 (39069) - http://www.bohemiancoding.com/sketch -->
    <title>demographic</title>
    <desc>Created with Sketch.</desc>
    <defs>
        <radialGradient cx="49.9944684%" cy="50%" fx="49.9944684%" fy="50%" r="50.359553%" gradientTransform="translate(0.499945,0.500000),scale(1.000000,0.985929),translate(-0.499945,-0.500000)" id="radialGradient-1">
            <stop stop-color="#E5B2CA" stop-opacity="0" offset="53%"></stop>
            <stop stop-color="#C6ADD2" stop-opacity="0.03" offset="65%"></stop>
            <stop stop-color="#73A1E9" stop-opacity="0.12" offset="85%"></stop>
            <stop stop-color="#2195FF" stop-opacity="0.2" offset="100%"></stop>
        </radialGradient>
        <linearGradient x1="99.98706%" y1="50.0447895%" x2="-0.0517598344%" y2="50.0447895%" id="linearGradient-2">
            <stop stop-color="#EEF4FB" offset="0%"></stop>
            <stop stop-color="#EEF4FB" offset="100%"></stop>
        </linearGradient>
        <linearGradient x1="-7.54792332%" y1="-63.343797%" x2="79.0335463%" y2="101.50931%" id="linearGradient-3">
            <stop stop-color="#B28DED" offset="0%"></stop>
            <stop stop-color="#70A6FB" offset="100%"></stop>
        </linearGradient>
    </defs>
    <g id="Page-1" stroke="none" stroke-width="1" fill="none" fill-rule="evenodd">
        <g id="demographic">
            <path d="M45.19,0 C20.23,0 0,20.52 0,45.84 C0,71.16 20.23,91.68 45.19,91.68 C70.15,91.68 90.39,71.16 90.39,45.84 C90.39,20.52 70.15,0 45.19,0 Z M45.19,81 C26.06,81 10.54,65.25 10.54,45.84 C10.54,26.43 26.06,10.7 45.19,10.7 C64.32,10.7 79.84,26.43 79.84,45.84 C79.84,65.25 64.33,81 45.19,81 Z" id="Shape" fill="url(#radialGradient-1)" fill-rule="nonzero"></path>
            <g id="Group" transform="translate(15.000000, 15.000000)" stroke="#8F98A9" stroke-width="0.5" opacity="0.3">
                <g id="Shape">
                    <g transform="translate(30.000000, 0.000000)">
                        <path d="M0.21,60.19 L0.21,38.3"></path>
                        <path d="M0.21,22.74 L0.21,0.85"></path>
                    </g>
                    <g transform="translate(27.000000, 0.000000)">
                        <path d="M0.62,60.08 L2.53,38.27"></path>
                        <path d="M3.89,22.77 L5.79,0.96"></path>
                    </g>
                    <g transform="translate(25.000000, 1.000000)">
                        <path d="M0.06,58.74 L3.86,37.18"></path>
                        <path d="M6.56,21.86 L10.36,0.3"></path>
                    </g>
                    <g transform="translate(22.000000, 1.000000)">
                        <path d="M0.53,58.18 L6.19,37.04"></path>
                        <path d="M10.22,22 L15.89,0.86"></path>
                    </g>
                    <g transform="translate(20.000000, 2.000000)">
                        <path d="M0.06,56.4 L7.55,35.83"></path>
                        <path d="M12.87,21.21 L20.36,0.64"></path>
                    </g>
                    <g transform="translate(17.000000, 3.000000)">
                        <path d="M0.67,54.41 L9.92,34.57"></path>
                        <path d="M16.5,20.47 L25.75,0.63"></path>
                    </g>
                    <g transform="translate(15.000000, 4.000000)">
                        <path d="M0.37,52.22 L11.32,33.26"></path>
                        <path d="M19.1,19.78 L30.04,0.83"></path>
                    </g>
                    <g transform="translate(13.000000, 6.000000)">
                        <path d="M0.19,48.83 L12.75,30.9"></path>
                        <path d="M21.67,18.15 L34.23,0.22"></path>
                    </g>
                    <g transform="translate(11.000000, 7.000000)">
                        <path d="M0.14,46.25 L14.21,29.48"></path>
                        <path d="M24.21,17.56 L38.28,0.79"></path>
                    </g>
                    <g transform="translate(9.000000, 9.000000)">
                        <path d="M0.23,42.5 L15.71,27.02"></path>
                        <path d="M26.71,16.02 L42.19,0.54"></path>
                    </g>
                    <g transform="translate(7.000000, 11.000000)">
                        <path d="M0.48,38.59 L17.25,24.52"></path>
                        <path d="M29.17,14.52 L45.94,0.45"></path>
                    </g>
                    <g transform="translate(5.000000, 13.000000)">
                        <path d="M0.9,34.54 L18.83,21.98"></path>
                        <path d="M31.58,13.06 L49.51,0.5"></path>
                    </g>
                    <g transform="translate(4.000000, 15.000000)">
                        <path d="M0.51,30.36 L19.47,19.41"></path>
                        <path d="M32.95,11.63 L51.9,0.69"></path>
                    </g>
                    <g transform="translate(3.000000, 17.000000)">
                        <path d="M0.32,26.06 L20.16,16.81"></path>
                        <path d="M34.26,10.23 L54.1,0.98"></path>
                    </g>
                    <g transform="translate(2.000000, 20.000000)">
                        <path d="M0.33,20.67 L20.9,13.18"></path>
                        <path d="M35.52,7.86 L56.09,0.37"></path>
                    </g>
                    <g transform="translate(1.000000, 22.000000)">
                        <path d="M0.55,16.2 L21.69,10.53"></path>
                        <path d="M36.72,6.51 L57.87,0.84"></path>
                    </g>
                    <g transform="translate(0.000000, 25.000000)">
                        <path d="M0.99,10.67 L22.55,6.87"></path>
                        <path d="M37.87,4.17 L59.43,0.37"></path>
                    </g>
                    <g transform="translate(0.000000, 27.000000)">
                        <path d="M0.65,6.11 L22.46,4.2"></path>
                        <path d="M37.96,2.84 L59.77,0.93"></path>
                    </g>
                    <g transform="translate(0.000000, 30.000000)">
                        <path d="M0.54,0.52 L22.43,0.52"></path>
                        <path d="M37.99,0.52 L59.88,0.52"></path>
                    </g>
                    <g transform="translate(0.000000, 27.000000)">
                        <path d="M0.65,0.93 L22.46,2.84"></path>
                        <path d="M37.96,4.2 L59.77,6.11"></path>
                    </g>
                    <g transform="translate(0.000000, 25.000000)">
                        <path d="M0.99,0.37 L22.55,4.17"></path>
                        <path d="M37.87,6.87 L59.43,10.67"></path>
                    </g>
                    <g transform="translate(1.000000, 22.000000)">
                        <path d="M0.55,0.84 L21.69,6.51"></path>
                        <path d="M36.72,10.53 L57.87,16.2"></path>
                    </g>
                    <g transform="translate(2.000000, 20.000000)">
                        <path d="M0.33,0.37 L20.9,7.86"></path>
                        <path d="M35.52,13.18 L56.09,20.67"></path>
                    </g>
                    <path d="M3.32,17.98 L23.16,27.23"></path>
                    <g transform="translate(4.000000, 15.000000)">
                        <path d="M0.51,0.69 L19.47,11.63"></path>
                        <path d="M32.95,19.41 L51.9,30.36"></path>
                    </g>
                    <g transform="translate(5.000000, 13.000000)">
                        <path d="M0.9,0.5 L18.83,13.06"></path>
                        <path d="M31.58,21.98 L49.51,34.54"></path>
                    </g>
                    <g transform="translate(7.000000, 11.000000)">
                        <path d="M0.48,0.45 L17.25,14.52"></path>
                        <path d="M29.17,24.52 L45.94,38.59"></path>
                    </g>
                    <g transform="translate(9.000000, 9.000000)">
                        <path d="M0.23,0.54 L15.71,16.02"></path>
                        <path d="M26.71,27.02 L42.19,42.5"></path>
                    </g>
                    <g transform="translate(11.000000, 7.000000)">
                        <path d="M0.14,0.79 L14.21,17.56"></path>
                        <path d="M24.21,29.48 L38.28,46.25"></path>
                    </g>
                    <g transform="translate(13.000000, 6.000000)">
                        <path d="M0.19,0.22 L12.75,18.15"></path>
                        <path d="M21.67,30.9 L34.23,48.83"></path>
                    </g>
                    <path d="M15.37,4.83 L26.32,23.78"></path>
                    <path d="M34.1,37.26 L45.04,56.22"></path>
                    <path d="M33.5,37.57 L42.75,57.41"></path>
                    <g transform="translate(20.000000, 2.000000)">
                        <path d="M0.06,0.64 L7.55,21.21"></path>
                        <path d="M12.87,35.83 L20.36,56.4"></path>
                    </g>
                    <path d="M32.22,38.04 L37.89,59.18"></path>
                    <g transform="translate(25.000000, 1.000000)">
                        <path d="M0.06,0.3 L3.86,21.86"></path>
                        <path d="M6.56,37.18 L10.36,58.74"></path>
                    </g>
                    <path d="M27.62,0.96 L29.53,22.77"></path>
                    <path d="M30.89,38.27 L32.79,60.08"></path>
                    <path d="M22.53,1.86 L28.19,23"></path>
                    <path d="M17.67,3.63 L26.92,23.47"></path>
                </g>
                <path d="M37.26,33.81 L57.1,43.06" id="Shape"></path>
            </g>
            <circle id="Oval" fill="#FFFFFF" fill-rule="nonzero" cx="45.21" cy="46.53" r="18.96"></circle>
            <g id="Group" transform="translate(36.000000, 37.000000)" fill-rule="nonzero" fill="#0E68F9">
                <path d="M9.21,7.77 C11.3252506,7.77 13.04,6.05525059 13.04,3.94 C13.04,1.82474941 11.3252506,0.11 9.21,0.11 C7.09474941,0.11 5.38,1.82474941 5.38,3.94 C5.37733526,4.95659372 5.77999619,5.93231824 6.49883897,6.65116103 C7.21768176,7.37000381 8.19340628,7.77266474 9.21,7.77 L9.21,7.77 Z" id="Shape"></path>
                <path d="M9.21,9.3 C6.4,9.3 0.78,10.71 0.78,13.52 L0.78,17 L17.64,17 L17.64,13.52 C17.64,10.71 12,9.3 9.21,9.3 Z" id="Shape"></path>
            </g>
            <g id="Group" transform="translate(0.000000, 52.000000)" fill-rule="nonzero">
                <path d="M45,11.51 C50.3,11.51 52.8,1.51 60.66,1.51 C67.96,1.51 71.18,11.51 75.82,11.51 L86.28,11.51 C86.09,14.87 81.74,17.51 80.33,20.51 C71.67,20.48 52.22,35 45.65,35 C40.35,35 33.23,28.68 25.37,28.68 C18.07,28.7 14.85,21 10.22,21 L11.61,21 C10.3837792,17.9455941 9.50817592,14.7618872 9,11.51 L45,11.51 Z" id="Shape" fill="url(#linearGradient-2)"></path>
                <g id="Shape">
                    <path d="M45.16,39.57 C63.4970679,39.5724068 80.0015622,28.4480928 86.88,11.45 L78.88,11.45 C74.12,11.45 70.81,19.34 63.31,19.34 C55.24,19.34 50.1,11.34 47.23,11.45 L3.45,11.45 C10.3270707,28.4447142 26.8265767,39.5683322 45.16,39.57" fill="#BDD7F9"></path>
                    <path d="M52.49,39 C61.318666,37.5335731 69.5065389,33.4587916 76,27.3 C65.9089833,22.2966473 56.1489822,16.6517459 46.78,10.4 C31,1.77635684e-15 15,-1.32 0.88,2.61 C1.51304829,5.93592463 2.51941636,9.17978437 3.88,12.28 C13.8320031,10.9495885 23.9348821,13.1620269 32.42,18.53 C43.51,25.71 49.36,33.53 52.52,38.97" fill="url(#linearGradient-3)"></path>
                </g>
            </g>
        </g>
    </g>
</svg>